{
  "polyfillFiles": [
    "static/chunks/polyfills-c67a75d1b6f99dc8.js"
  ],
  "devFiles": [],
  "ampDevFiles": [],
  "lowPriorityFiles": [
    "static/TqNz4cPRy4sTlxnwL3DiF/_buildManifest.js",
    "static/TqNz4cPRy4sTlxnwL3DiF/_ssgManifest.js"
  ],
  "rootMainFiles": [],
  "pages": {
    "/": [
      "static/chunks/webpack-6c4c9c596def006c.js",
      "static/chunks/framework-50116e63224baba2.js",
      "static/chunks/main-4258a70c20cdd6a8.js",
      "static/chunks/ea88be26-48f810fdcfa45ac3.js",
      "static/chunks/dc5f8571-80069a7a953fed57.js",
      "static/chunks/49093289-d593a580c0d013f2.js",
      "static/chunks/764-ead50fec7d112f9a.js",
      "static/chunks/46-26448d1ff9973ab5.js",
      "static/chunks/260-ec4c614196bb3ba9.js",
      "static/chunks/822-7f2ffd9f2ae61087.js",
      "static/chunks/628-5603b3806abfb909.js",
      "static/chunks/131-4e5ca93df84831ea.js",
      "static/chunks/pages/index-19e4104dc68e119d.js"
    ],
    "/_app": [
      "static/chunks/webpack-6c4c9c596def006c.js",
      "static/chunks/framework-50116e63224baba2.js",
      "static/chunks/main-4258a70c20cdd6a8.js",
      "static/css/37a4e55b987ede40.css",
      "static/chunks/pages/_app-4a3141700b9fbe0d.js"
    ],
    "/_error": [
      "static/chunks/webpack-6c4c9c596def006c.js",
      "static/chunks/framework-50116e63224baba2.js",
      "static/chunks/main-4258a70c20cdd6a8.js",
      "static/chunks/pages/_error-409f831d3504c8f5.js"
    ],
    "/company/dashboard": [
      "static/chunks/webpack-6c4c9c596def006c.js",
      "static/chunks/framework-50116e63224baba2.js",
      "static/chunks/main-4258a70c20cdd6a8.js",
      "static/chunks/ea88be26-48f810fdcfa45ac3.js",
      "static/chunks/dc5f8571-80069a7a953fed57.js",
      "static/chunks/49093289-d593a580c0d013f2.js",
      "static/chunks/764-ead50fec7d112f9a.js",
      "static/chunks/46-26448d1ff9973ab5.js",
      "static/chunks/260-ec4c614196bb3ba9.js",
      "static/chunks/822-7f2ffd9f2ae61087.js",
      "static/chunks/130-5ad462d5b4048b8d.js",
      "static/chunks/628-5603b3806abfb909.js",
      "static/chunks/131-4e5ca93df84831ea.js",
      "static/chunks/pages/company/dashboard-7fcc4384c7ba4d68.js"
    ],
    "/company/followers": [
      "static/chunks/webpack-6c4c9c596def006c.js",
      "static/chunks/framework-50116e63224baba2.js",
      "static/chunks/main-4258a70c20cdd6a8.js",
      "static/chunks/ea88be26-48f810fdcfa45ac3.js",
      "static/chunks/dc5f8571-80069a7a953fed57.js",
      "static/chunks/49093289-d593a580c0d013f2.js",
      "static/chunks/764-ead50fec7d112f9a.js",
      "static/chunks/46-26448d1ff9973ab5.js",
      "static/chunks/260-ec4c614196bb3ba9.js",
      "static/chunks/822-7f2ffd9f2ae61087.js",
      "static/chunks/628-5603b3806abfb909.js",
      "static/chunks/131-4e5ca93df84831ea.js",
      "static/chunks/pages/company/followers-98964349aa362709.js"
    ],
    "/company/giveaway": [
      "static/chunks/webpack-6c4c9c596def006c.js",
      "static/chunks/framework-50116e63224baba2.js",
      "static/chunks/main-4258a70c20cdd6a8.js",
      "static/chunks/ea88be26-48f810fdcfa45ac3.js",
      "static/chunks/dc5f8571-80069a7a953fed57.js",
      "static/chunks/49093289-d593a580c0d013f2.js",
      "static/chunks/764-ead50fec7d112f9a.js",
      "static/chunks/46-26448d1ff9973ab5.js",
      "static/chunks/260-ec4c614196bb3ba9.js",
      "static/chunks/822-7f2ffd9f2ae61087.js",
      "static/chunks/628-5603b3806abfb909.js",
      "static/chunks/131-4e5ca93df84831ea.js",
      "static/chunks/pages/company/giveaway-519dcc44579b9292.js"
    ],
    "/company/giveaway/[id]": [
      "static/chunks/webpack-6c4c9c596def006c.js",
      "static/chunks/framework-50116e63224baba2.js",
      "static/chunks/main-4258a70c20cdd6a8.js",
      "static/chunks/ea88be26-48f810fdcfa45ac3.js",
      "static/chunks/dc5f8571-80069a7a953fed57.js",
      "static/chunks/49093289-d593a580c0d013f2.js",
      "static/chunks/764-ead50fec7d112f9a.js",
      "static/chunks/46-26448d1ff9973ab5.js",
      "static/chunks/260-ec4c614196bb3ba9.js",
      "static/chunks/822-7f2ffd9f2ae61087.js",
      "static/chunks/130-5ad462d5b4048b8d.js",
      "static/chunks/154-1f505d8462df0dc2.js",
      "static/chunks/742-9772446bd858c12f.js",
      "static/chunks/628-5603b3806abfb909.js",
      "static/chunks/131-4e5ca93df84831ea.js",
      "static/chunks/814-0f96cf96c0fbb7a3.js",
      "static/css/b4ef80af4316d518.css",
      "static/chunks/pages/company/giveaway/[id]-3f32ead16f6b4a50.js"
    ],
    "/company/giveaway/add": [
      "static/chunks/webpack-6c4c9c596def006c.js",
      "static/chunks/framework-50116e63224baba2.js",
      "static/chunks/main-4258a70c20cdd6a8.js",
      "static/chunks/ea88be26-48f810fdcfa45ac3.js",
      "static/chunks/dc5f8571-80069a7a953fed57.js",
      "static/chunks/49093289-d593a580c0d013f2.js",
      "static/chunks/764-ead50fec7d112f9a.js",
      "static/chunks/46-26448d1ff9973ab5.js",
      "static/chunks/260-ec4c614196bb3ba9.js",
      "static/chunks/822-7f2ffd9f2ae61087.js",
      "static/chunks/154-1f505d8462df0dc2.js",
      "static/chunks/742-9772446bd858c12f.js",
      "static/chunks/188-3d596447d0b3a786.js",
      "static/chunks/279-dbf6b108a80ffcc3.js",
      "static/chunks/628-5603b3806abfb909.js",
      "static/chunks/131-4e5ca93df84831ea.js",
      "static/chunks/490-1a892cb2e550f03e.js",
      "static/css/5574653c06fea5bf.css",
      "static/chunks/pages/company/giveaway/add-2ea9aced2172cf21.js"
    ],
    "/company/giveaway/edit/[id]": [
      "static/chunks/webpack-6c4c9c596def006c.js",
      "static/chunks/framework-50116e63224baba2.js",
      "static/chunks/main-4258a70c20cdd6a8.js",
      "static/chunks/ea88be26-48f810fdcfa45ac3.js",
      "static/chunks/dc5f8571-80069a7a953fed57.js",
      "static/chunks/49093289-d593a580c0d013f2.js",
      "static/chunks/764-ead50fec7d112f9a.js",
      "static/chunks/46-26448d1ff9973ab5.js",
      "static/chunks/260-ec4c614196bb3ba9.js",
      "static/chunks/822-7f2ffd9f2ae61087.js",
      "static/chunks/154-1f505d8462df0dc2.js",
      "static/chunks/742-9772446bd858c12f.js",
      "static/chunks/188-3d596447d0b3a786.js",
      "static/chunks/279-dbf6b108a80ffcc3.js",
      "static/chunks/628-5603b3806abfb909.js",
      "static/chunks/131-4e5ca93df84831ea.js",
      "static/chunks/490-1a892cb2e550f03e.js",
      "static/css/5574653c06fea5bf.css",
      "static/chunks/pages/company/giveaway/edit/[id]-855b5b28d9afbc3c.js"
    ],
    "/company/giveaway/preview": [
      "static/chunks/webpack-6c4c9c596def006c.js",
      "static/chunks/framework-50116e63224baba2.js",
      "static/chunks/main-4258a70c20cdd6a8.js",
      "static/chunks/ea88be26-48f810fdcfa45ac3.js",
      "static/chunks/764-ead50fec7d112f9a.js",
      "static/chunks/46-26448d1ff9973ab5.js",
      "static/chunks/260-ec4c614196bb3ba9.js",
      "static/chunks/130-5ad462d5b4048b8d.js",
      "static/chunks/154-1f505d8462df0dc2.js",
      "static/chunks/742-9772446bd858c12f.js",
      "static/chunks/628-5603b3806abfb909.js",
      "static/chunks/814-0f96cf96c0fbb7a3.js",
      "static/css/b4ef80af4316d518.css",
      "static/chunks/pages/company/giveaway/preview-eed0bcca574214cb.js"
    ],
    "/company/profile": [
      "static/chunks/webpack-6c4c9c596def006c.js",
      "static/chunks/framework-50116e63224baba2.js",
      "static/chunks/main-4258a70c20cdd6a8.js",
      "static/chunks/ea88be26-48f810fdcfa45ac3.js",
      "static/chunks/dc5f8571-80069a7a953fed57.js",
      "static/chunks/49093289-d593a580c0d013f2.js",
      "static/chunks/764-ead50fec7d112f9a.js",
      "static/chunks/46-26448d1ff9973ab5.js",
      "static/chunks/260-ec4c614196bb3ba9.js",
      "static/chunks/822-7f2ffd9f2ae61087.js",
      "static/chunks/130-5ad462d5b4048b8d.js",
      "static/chunks/188-3d596447d0b3a786.js",
      "static/chunks/628-5603b3806abfb909.js",
      "static/chunks/131-4e5ca93df84831ea.js",
      "static/chunks/459-35b2549ade4e0193.js",
      "static/css/1fd6dba9b92673fa.css",
      "static/chunks/pages/company/profile-734243d945fb2143.js"
    ],
    "/company/profile/[id]": [
      "static/chunks/webpack-6c4c9c596def006c.js",
      "static/chunks/framework-50116e63224baba2.js",
      "static/chunks/main-4258a70c20cdd6a8.js",
      "static/chunks/ea88be26-48f810fdcfa45ac3.js",
      "static/chunks/dc5f8571-80069a7a953fed57.js",
      "static/chunks/49093289-d593a580c0d013f2.js",
      "static/chunks/764-ead50fec7d112f9a.js",
      "static/chunks/46-26448d1ff9973ab5.js",
      "static/chunks/260-ec4c614196bb3ba9.js",
      "static/chunks/822-7f2ffd9f2ae61087.js",
      "static/chunks/130-5ad462d5b4048b8d.js",
      "static/chunks/628-5603b3806abfb909.js",
      "static/chunks/131-4e5ca93df84831ea.js",
      "static/chunks/459-35b2549ade4e0193.js",
      "static/chunks/pages/company/profile/[id]-dfee17ac5d3280fa.js"
    ],
    "/giveaways": [
      "static/chunks/webpack-6c4c9c596def006c.js",
      "static/chunks/framework-50116e63224baba2.js",
      "static/chunks/main-4258a70c20cdd6a8.js",
      "static/chunks/ea88be26-48f810fdcfa45ac3.js",
      "static/chunks/dc5f8571-80069a7a953fed57.js",
      "static/chunks/49093289-d593a580c0d013f2.js",
      "static/chunks/764-ead50fec7d112f9a.js",
      "static/chunks/46-26448d1ff9973ab5.js",
      "static/chunks/260-ec4c614196bb3ba9.js",
      "static/chunks/822-7f2ffd9f2ae61087.js",
      "static/chunks/130-5ad462d5b4048b8d.js",
      "static/chunks/301-9feed5fe66430b27.js",
      "static/chunks/628-5603b3806abfb909.js",
      "static/chunks/131-4e5ca93df84831ea.js",
      "static/chunks/459-35b2549ade4e0193.js",
      "static/css/4df78f2cd73d6b26.css",
      "static/chunks/pages/giveaways-5ec27ea59d0b56c2.js"
    ],
    "/redirect": [
      "static/chunks/webpack-6c4c9c596def006c.js",
      "static/chunks/framework-50116e63224baba2.js",
      "static/chunks/main-4258a70c20cdd6a8.js",
      "static/chunks/764-ead50fec7d112f9a.js",
      "static/chunks/154-1f505d8462df0dc2.js",
      "static/chunks/pages/redirect-7ddf25fa9b4941a4.js"
    ],
    "/temphost/[host]": [
      "static/chunks/webpack-6c4c9c596def006c.js",
      "static/chunks/framework-50116e63224baba2.js",
      "static/chunks/main-4258a70c20cdd6a8.js",
      "static/chunks/46-26448d1ff9973ab5.js",
      "static/chunks/130-5ad462d5b4048b8d.js",
      "static/chunks/459-35b2549ade4e0193.js",
      "static/chunks/pages/temphost/[host]-e500769e22da2f85.js"
    ],
    "/twitterAuth": [
      "static/chunks/webpack-6c4c9c596def006c.js",
      "static/chunks/framework-50116e63224baba2.js",
      "static/chunks/main-4258a70c20cdd6a8.js",
      "static/chunks/ea88be26-48f810fdcfa45ac3.js",
      "static/chunks/764-ead50fec7d112f9a.js",
      "static/chunks/260-ec4c614196bb3ba9.js",
      "static/chunks/154-1f505d8462df0dc2.js",
      "static/chunks/742-9772446bd858c12f.js",
      "static/chunks/628-5603b3806abfb909.js",
      "static/css/b4ef80af4316d518.css",
      "static/chunks/pages/twitterAuth-51fb63eea5632300.js"
    ],
    "/users/dashboard": [
      "static/chunks/webpack-6c4c9c596def006c.js",
      "static/chunks/framework-50116e63224baba2.js",
      "static/chunks/main-4258a70c20cdd6a8.js",
      "static/chunks/ea88be26-48f810fdcfa45ac3.js",
      "static/chunks/dc5f8571-80069a7a953fed57.js",
      "static/chunks/49093289-d593a580c0d013f2.js",
      "static/chunks/764-ead50fec7d112f9a.js",
      "static/chunks/46-26448d1ff9973ab5.js",
      "static/chunks/260-ec4c614196bb3ba9.js",
      "static/chunks/822-7f2ffd9f2ae61087.js",
      "static/chunks/628-5603b3806abfb909.js",
      "static/chunks/131-4e5ca93df84831ea.js",
      "static/chunks/pages/users/dashboard-394c78a7984652ab.js"
    ],
    "/users/profile": [
      "static/chunks/webpack-6c4c9c596def006c.js",
      "static/chunks/framework-50116e63224baba2.js",
      "static/chunks/main-4258a70c20cdd6a8.js",
      "static/chunks/ea88be26-48f810fdcfa45ac3.js",
      "static/chunks/dc5f8571-80069a7a953fed57.js",
      "static/chunks/49093289-d593a580c0d013f2.js",
      "static/chunks/764-ead50fec7d112f9a.js",
      "static/chunks/46-26448d1ff9973ab5.js",
      "static/chunks/260-ec4c614196bb3ba9.js",
      "static/chunks/822-7f2ffd9f2ae61087.js",
      "static/chunks/188-3d596447d0b3a786.js",
      "static/chunks/628-5603b3806abfb909.js",
      "static/chunks/131-4e5ca93df84831ea.js",
      "static/css/1fd6dba9b92673fa.css",
      "static/chunks/pages/users/profile-015653f9cb9d157d.js"
    ]
  },
  "ampFirstPages": []
}